3 Using EBASE – Ecosystem Metabolism Workshop
…
The credible intervals can also be retrieved as a data frame using credible_prep(). This function is provided as a convenience to parse the results from ebase().

credible_prep(res)

# A tibble: 21 × 6
# Groups:   grp [7]
   Date         grp var      mean      lo      hi
   <date>     <dbl> <fct>   <dbl>   <dbl>   <dbl>
 1 2017-03-07     1 a       0.623  0.229    1.10 
 2 2017-03-07     1 R      64.2   17.4    117.   
 3 2017-03-07     1 b       0.249  0.0448   0.450
 4 2017-03-08     2 a       0.869  0.321    1.59 
 5 2017-03-08     2 R      30.6    2.17    71.6  
 6 2017-03-08     2 b       0.259  0.0368   0.471
 7 2017-03-09     3 a       1.78   1.23     2.38 
 8 2017-03-09     3 R     133.    76.6    194.   
 9 2017-03-09     3 b       0.328  0.117    0.488
10 2017-03-10     4 a       0.348  0.0257   0.883
# ℹ 11 more rows
…
